INVITATION,ACCOUNTNUM,ZIP,ZIP_SERVIC,NEWACCOUNTNUM
111000001,21101101004002,21550,21550,110080575852
111000002,21101101006003,21550,21550,110080653329
111000003,21101101008001,21550,21550,110082304145
111000004,21101101010002,21550,21550,110082304376
111000005,21101101012001,21550,21550,110082304574
111000006,21101101014003,21550,21550,110082304806
111000007,21101101016002,21550,21550,110082304996
111000008,21101101018002,21550,21550,110082305241
111000009,21101101020002,21550,21550,110082305472
111000010,21101101022003,21550,21550,110082305720
111000011,21101101024001,21550,21550,110082306074
111000012,21101101026001,21550,21550,110082306454
111000013,21101101028001,21550,21550,110082306850
111000014,21101101030004,21521,21550,110082307247
111000015,21101101032008,21550,21550,110082307742
111000016,21101101034004,21550,21550,110082308054
111000017,21101101036007,21550,21550,110082308963
111000018,21101101038001,21550,21550,110082309318
111000019,21101101040003,21550,21550,110082349595
111000020,21101101041008,21550,21550,110082349991
111000022,21101101044001,21550,21550,110082350585
111000023,21101101046002,21550,21550,110082351013
111000024,21101101048001,21541,21550,110082351344
111000025,21101101049001,21550,21550,110082351773
111000026,21101101052008,21550,21550,110082352078
111000027,21101101052108,21550,21550,110082352334
111000028,21101101052202,21550,21550,110082352664
111000029,21101101052302,21550,21550,110082353100
111000030,21101101054002,21550,21550,110082353506
111000031,21101101054015,21550,21550,110082353902
111000032,21101101054023,21550,21550,110082354363
111000033,21101101054053,21550,21550,110082354686
111000034,21101101054062,21550,21550,110082355154
111000035,21101101054072,21550,21550,110082452399
111000036,21101101054103,21550,21550,110082452548
111000037,21101101058003,21550,21550,110082452829
111000038,21101101060005,21550,21550,110082453066
111000039,21101101062002,21550,21550,110082453249
111000040,21101101064001,21550,21550,110082453546
111000041,21101101065002,21550,21550,110082453801
111000042,21101101065501,21550,21550,110082453983
111000043,21101101066004,21550,21550,110082454296
111000044,21101101068004,21550,21550,110082454692
111000045,21101101070001,21550,21550,110082455202
111000046,21101101074008,26764,21550,110082455897
111000048,21101101078001,21550,21550,110082457182
111000049,21101101080004,21550,21550,110082457521
111000050,21101101081001,21550,21550,110082457752
111000051,21101101082008,21550,21550,110082458099
